Lab2/vcd/mux.vcd
$date
  Thu Apr 14 18:25:04 2022
$end
$version
  GHDL v0
$end
$timescale
  1 fs
$end
$scope module standard $end
$upscope $end
$scope module std_logic_1164 $end
$upscope $end
$scope module numeric_std $end
$upscope $end
$scope module tb_msi $end
$var reg 2 ! s[1:0] $end
$var reg 4 " a[3:0] $end
$var reg 1 # o $end
$scope module mux_inst $end
$var reg 2 $ s[1:0] $end
$var reg 4 % a[3:0] $end
$var reg 1 & o $end
$var reg 1 ' and0_out $end
$var reg 1 ( and1_out $end
$var reg 1 ) and2_out $end
$var reg 1 * and3_out $end
$upscope $end
$upscope $end
$enddefinitions $end
#0
b00 !
b0000 "
0#
b00 $
b0000 %
0&
0'
0(
0)
0*
#10000000
b0001 "
1#
b0001 %
1&
1*
#20000000
b0010 "
0#
b0010 %
0&
0*
#30000000
#40000000
b0011 "
1#
b0011 %
1&
1*
#50000000
b0100 "
0#
b0100 %
0&
0*
#60000000
b0101 "
1#
b0101 %
1&
1*
#70000000
b0110 "
0#
b0110 %
0&
0*
#80000000
b0111 "
1#
b0111 %
1&
1*
#90000000
b1000 "
0#
b1000 %
0&
0*
#100000000
b1001 "
1#
b1001 %
1&
1*
#110000000
b1010 "
0#
b1010 %
0&
0*
#120000000
b1011 "
1#
b1011 %
1&
1*
#130000000
b1100 "
0#
b1100 %
0&
0*
#140000000
b1101 "
1#
b1101 %
1&
1*
#150000000
b1110 "
0#
b1110 %
0&
0*
#160000000
b01 !
b0000 "
b01 $
b0000 %
#170000000
b0001 "
b0001 %
#180000000
b0010 "
1#
b0010 %
1&
1)
#190000000
#200000000
b0011 "
b0011 %
#210000000
b0100 "
0#
b0100 %
0&
0)
#220000000
b0101 "
b0101 %
#230000000
b0110 "
1#
b0110 %
1&
1)
#240000000
b0111 "
b0111 %
#250000000
b1000 "
0#
b1000 %
0&
0)
#260000000
b1001 "
b1001 %
#270000000
b1010 "
1#
b1010 %
1&
1)
#280000000
b1011 "
b1011 %
#290000000
b1100 "
0#
b1100 %
0&
0)
#300000000
b1101 "
b1101 %
#310000000
b1110 "
1#
b1110 %
1&
1)
#320000000
b10 !
b0000 "
0#
b10 $
b0000 %
0&
0)
#330000000
b0001 "
b0001 %
#340000000
b0010 "
b0010 %
#350000000
#360000000
b0011 "
b0011 %
#370000000
b0100 "
1#
b0100 %
1&
1(
#380000000
b0101 "
b0101 %
#390000000
b0110 "
b0110 %
#400000000
b0111 "
b0111 %
#410000000
b1000 "
0#
b1000 %
0&
0(
#420000000
b1001 "
b1001 %
#430000000
b1010 "
b1010 %
#440000000
b1011 "
b1011 %
#450000000
b1100 "
1#
b1100 %
1&
1(
#460000000
b1101 "
b1101 %
#470000000
b1110 "
b1110 %
#480000000
b11 !
b0000 "
0#
b11 $
b0000 %
0&
0(
#490000000
b0001 "
b0001 %
#500000000
b0010 "
b0010 %
#510000000
#520000000
b0011 "
b0011 %
#530000000
b0100 "
b0100 %
#540000000
b0101 "
b0101 %
#550000000
b0110 "
b0110 %
#560000000
b0111 "
b0111 %
#570000000
b1000 "
1#
b1000 %
1&
1'
#580000000
b1001 "
b1001 %
#590000000
b1010 "
b1010 %
#600000000
b1011 "
b1011 %
#610000000
b1100 "
b1100 %
#620000000
b1101 "
b1101 %
#630000000
b1110 "
b1110 %
#640000000
b1111 "
b1111 %
